Data Wrangling Report
…
## Joining, by = "word"

## # A tibble: 6 x 2
##   word          n
##   <chr>     <int>
## 1 world         5
## 2 family        4
## 3 save          4
## 4 begins        3
## 5 encounter     3
## 6 escape        3

## # A tibble: 2,019 x 3
##    word      popular `top 250`
##    <chr>       <dbl>     <dbl>
##  1 abilities 0.00197 NA       
##  2 ability   0.00197  0.000348
##  3 aboard    0.00197 NA       
##  4 accept    0.00197  0.000348
##  5 achieve   0.00197 NA       
##  6 act       0.00197  0.000348
##  7 action    0.00197  0.000696
##  8 actor     0.00197 NA       
##  9 acts      0.00197  0.000348
## 10 advanced  0.00197  0.000348
## # ... with 2,009 more rows
…
##           popular   top 250
## popular 1.0000000 0.3356749
## top 250 0.3356749 1.0000000

Then check the 10 most common bigrams. Perhaps people are care about war, the top three bigrams in the top 250 movies are related to war, whether in reality or in fictional world.

## # A tibble: 1,125 x 2
##    bigram            n
##    <chr>         <int>
##  1 war ii            7
##  2 world war         7
##  3 darth vader       3
##  4 gotham city       3
##  5 serial killer     3
##  6 york city         3
##  7 army officer      2
##  8 bounty hunter     2
##  9 dark lord         2
## 10 enemy lines       2
## # ... with 1,115 more rows

## # A tibble: 202 x 2
##    bigram               n
##    <chr>            <int>
##  1 blade runner         2
##  2 captain america      2
##  3 dark lord            2
##  4 1969 los             1
##  5 achieve fame         1
##  6 act bruce            1
##  7 advanced kingdom     1
##  8 agency monarch       1
##  9 aging patriarch      1
## 10 ally diana           1
## # ... with 192 more rows

Compute the attitude for movies in the two list. No matter which list the description is in, there are more negative information than positive. In the list of the top 250 movies, it is surprised to see that a trend of decreasing in negative information as the scores rising.

## # A tibble: 3,380 x 4
## # Groups:   movie [2]
##    word       movie   title                    imDbRating
##    <chr>      <chr>   <chr>                         <dbl>
##  1 imprisoned top 250 The Shawshank Redemption        9.2
##  2 bond       top 250 The Shawshank Redemption        9.2
##  3 finding    top 250 The Shawshank Redemption        9.2
##  4 solace     top 250 The Shawshank Redemption        9.2
##  5 eventual   top 250 The Shawshank Redemption        9.2
##  6 redemption top 250 The Shawshank Redemption        9.2
##  7 acts       top 250 The Shawshank Redemption        9.2
##  8 common     top 250 The Shawshank Redemption        9.2
##  9 decency    top 250 The Shawshank Redemption        9.2
## 10 aging      top 250 The Godfather                   9.1
## # ... with 3,370 more rows
…
